{
  "groupId":"com.barqtranslator",
  "artifactId":"barq",
  "artifactVersion":"1.0.0",
  "invokerPackage":"com.barqtranslator",
  "basePackage":"com.barqtranslator",
  "configPackage":"com.barqtranslator.configuration",
  "apiPackage":"com.barqtranslator.api",
  "modelPackage":"com.barqtranslator.core",
  "java8":"true",
  "singleContentTypes":"true"
}